<?xml version="1.0" encoding="UTF-8" standalone="no"?>
<svg width="396px" height="867px" viewBox="0 0 396 867" version="1.1" xmlns="http://www.w3.org/2000/svg" xmlns:xlink="http://www.w3.org/1999/xlink">
    <!-- Generator: Sketch 39.1 (31720) - http://www.bohemiancoding.com/sketch -->
    <title>pattern-blob</title>
    <desc>Created with Sketch.</desc>
    <defs>
        <polygon id="path-1" points="0 0 396 0 396 867 0 867"></polygon>
    </defs>
    <g id="Page-1" stroke="none" stroke-width="1" fill="none" fill-rule="evenodd">
        <g id="pattern-blob">
            <g id="Group">
                <polygon id="a" points="0 0 396 0 396 867 0 867"></polygon>
                <g id="Clipped">
                    <mask id="mask-2" fill="white">
                        <use xlink:href="#path-1"></use>
                    </mask>
                    <g id="a"></g>
                    <g id="Group" mask="url(#mask-2)" fill="#FCEFE6">
                        <g transform="translate(-60.000000, 0.000000)" id="Shape">
                            <path d="M7.61,46.34 C12.34,28.15 23.75,12.82 45.13,5.95 C51.06,4.04 56.64,3.74 62.72,3.43 C70.05,3.06 77.16,0.98 84.58,1 C96.48,1 109.9,0.52 121.05,5.36 C128.78,8.761 135.994,13.232 142.48,18.64 C152.06,26.58 159.69,37.88 161.2,50.64 C162.88,64.88 158.82,78.18 154.4,91.75 C150.6,103.43 146.21,115.06 134.96,123.75 C123.96,132.24 110.13,134.57 96.73,135.63 C84.41,136.63 72.03,137.57 59.73,136.43 C46.96,135.25 31.66,132.79 21.17,124.24 C13.12,117.68 10.17,105.47 8.04,95.83 C4.39,79.56 3.56,61.9 7.61,46.34 L7.61,46.34 Z M190.89,90.4 C195.62,72.21 207.03,56.88 228.41,50.01 C234.34,48.1 239.92,47.8 246,47.49 C253.33,47.12 260.44,45.04 267.86,45.06 C279.76,45.06 293.18,44.58 304.33,49.42 C312.06,52.821 319.274,57.292 325.76,62.7 C335.34,70.64 342.97,81.94 344.48,94.7 C346.16,108.94 342.1,122.24 337.68,135.81 C333.88,147.49 329.49,159.12 318.24,167.81 C307.24,176.3 293.41,178.63 280.01,179.69 C267.69,180.69 255.31,181.63 243.01,180.49 C230.24,179.31 214.94,176.85 204.45,168.3 C196.4,161.74 193.45,149.53 191.32,139.89 C187.67,123.67 186.84,106.01 190.89,90.4 L190.89,90.4 Z M33.84,220.17 C38.57,201.98 49.98,186.65 71.36,179.78 C77.29,177.87 82.87,177.57 88.95,177.26 C96.28,176.89 103.39,174.81 110.81,174.83 C122.71,174.83 136.13,174.35 147.28,179.19 C155.01,182.591 162.224,187.062 168.71,192.47 C178.29,200.41 185.92,211.71 187.43,224.47 C189.11,238.71 185.05,252.01 180.63,265.58 C176.83,277.26 172.44,288.89 161.19,297.58 C150.19,306.07 136.36,308.4 122.96,309.46 C110.64,310.46 98.26,311.4 85.96,310.26 C73.19,309.08 57.89,306.62 47.4,298.07 C39.35,291.51 36.4,279.3 34.27,269.66 C30.62,253.4 29.79,235.73 33.84,220.17 L33.84,220.17 Z M208.45,265.32 C213.18,247.13 224.59,231.8 245.97,224.93 C251.9,223.02 257.48,222.72 263.56,222.41 C270.89,222.04 278,219.96 285.42,219.98 C297.32,219.98 310.74,219.5 321.89,224.34 C329.62,227.741 336.834,232.212 343.32,237.62 C352.9,245.56 360.53,256.86 362.04,269.62 C363.72,283.86 359.66,297.16 355.24,310.73 C351.44,322.41 347.05,334.04 335.8,342.73 C324.8,351.22 310.97,353.55 297.57,354.61 C285.25,355.61 272.87,356.55 260.57,355.41 C247.8,354.23 232.5,351.77 222.01,343.22 C213.96,336.66 211.01,324.45 208.88,314.81 C205.23,298.54 204.4,280.88 208.45,265.32 L208.45,265.32 Z M2.69,394.62 C7.42,376.43 18.83,361.1 40.21,354.23 C46.14,352.32 51.72,352.02 57.8,351.71 C65.13,351.34 72.24,349.26 79.66,349.28 C91.56,349.28 104.98,348.8 116.13,353.64 C123.86,357.041 131.074,361.512 137.56,366.92 C147.14,374.86 154.77,386.16 156.28,398.92 C157.96,413.16 153.9,426.46 149.48,440.03 C145.68,451.71 141.29,463.34 130.04,472.03 C119.04,480.52 105.21,482.85 91.81,483.91 C79.49,484.91 67.11,485.85 54.81,484.71 C42.04,483.53 26.74,481.07 16.25,472.52 C8.2,465.96 5.25,453.75 3.12,444.11 C-0.52,427.84 -1.36,410.19 2.69,394.62 L2.69,394.62 Z M206.08,430.15 C210.81,411.96 222.22,396.63 243.6,389.76 C249.53,387.85 255.11,387.55 261.19,387.24 C268.52,386.87 275.63,384.79 283.05,384.81 C294.95,384.81 308.37,384.33 319.52,389.17 C327.25,392.571 334.464,397.042 340.95,402.45 C350.53,410.39 358.16,421.69 359.67,434.45 C361.35,448.69 357.29,461.99 352.87,475.56 C349.07,487.24 344.68,498.87 333.43,507.56 C322.43,516.05 308.6,518.38 295.2,519.44 C282.88,520.44 270.5,521.38 258.2,520.24 C245.43,519.06 230.13,516.6 219.64,508.05 C211.59,501.49 208.64,489.28 206.51,479.64 C202.87,463.4 202.03,445.71 206.08,430.15 L206.08,430.15 Z M398.6,46.34 C403.33,28.15 414.74,12.82 436.12,5.95 C442.05,4.04 447.63,3.74 453.71,3.43 C461.04,3.06 468.15,0.98 475.57,1 C487.47,1 500.89,0.52 512.04,5.36 C519.77,8.761 526.984,13.232 533.47,18.64 C543.05,26.58 550.68,37.88 552.19,50.64 C553.87,64.88 549.81,78.18 545.39,91.75 C541.59,103.43 537.2,115.06 525.95,123.75 C514.95,132.24 501.12,134.57 487.72,135.63 C475.4,136.63 463.02,137.57 450.72,136.43 C437.95,135.25 422.65,132.79 412.16,124.24 C404.11,117.68 401.16,105.47 399.03,95.83 C395.38,79.56 394.55,61.9 398.6,46.34 L398.6,46.34 Z M424.83,220.17 C429.56,201.98 440.97,186.65 462.35,179.78 C468.28,177.87 473.86,177.57 479.94,177.26 C487.27,176.89 494.38,174.81 501.8,174.83 C513.7,174.83 527.12,174.35 538.27,179.19 C546,182.591 553.214,187.062 559.7,192.47 C569.28,200.41 576.91,211.71 578.42,224.47 C580.1,238.71 576.04,252.01 571.62,265.58 C567.82,277.26 563.43,288.89 552.18,297.58 C541.18,306.07 527.35,308.4 513.95,309.46 C501.63,310.46 489.25,311.4 476.95,310.26 C464.18,309.08 448.88,306.62 438.39,298.07 C430.34,291.51 427.39,279.3 425.26,269.66 C421.61,253.4 420.78,235.73 424.83,220.17 L424.83,220.17 Z M393.68,394.62 C398.41,376.43 409.82,361.1 431.2,354.23 C437.13,352.32 442.71,352.02 448.79,351.71 C456.12,351.34 463.23,349.26 470.65,349.28 C482.55,349.28 495.97,348.8 507.12,353.64 C514.85,357.041 522.064,361.512 528.55,366.92 C538.13,374.86 545.76,386.16 547.27,398.92 C548.95,413.16 544.89,426.46 540.47,440.03 C536.67,451.71 532.28,463.34 521.03,472.03 C510.03,480.52 496.2,482.85 482.8,483.91 C470.48,484.91 458.1,485.85 445.8,484.71 C433.03,483.53 417.73,481.07 407.24,472.52 C399.19,465.96 396.24,453.75 394.11,444.11 C390.47,427.84 389.64,410.19 393.68,394.62 L393.68,394.62 Z M2.69,571.89 C7.42,553.7 18.83,538.37 40.21,531.5 C46.14,529.59 51.72,529.29 57.8,528.98 C65.13,528.61 72.24,526.53 79.66,526.55 C91.56,526.55 104.98,526.07 116.13,530.91 C123.86,534.311 131.074,538.782 137.56,544.19 C147.14,552.13 154.77,563.43 156.28,576.19 C157.96,590.43 153.9,603.73 149.48,617.3 C145.68,628.98 141.29,640.61 130.04,649.3 C119.04,657.79 105.21,660.12 91.81,661.18 C79.49,662.18 67.11,663.12 54.81,661.98 C42.04,660.8 26.74,658.34 16.25,649.79 C8.2,643.23 5.25,631.02 3.12,621.38 C-0.52,605.11 -1.36,587.45 2.69,571.89 L2.69,571.89 Z M206.08,607.4 C210.81,589.21 222.22,573.88 243.6,567.01 C249.53,565.1 255.11,564.8 261.19,564.49 C268.52,564.12 275.63,562.04 283.05,562.06 C294.95,562.06 308.37,561.58 319.52,566.42 C327.25,569.821 334.464,574.292 340.95,579.7 C350.53,587.64 358.16,598.94 359.67,611.7 C361.35,625.94 357.29,639.24 352.87,652.81 C349.07,664.49 344.68,676.12 333.43,684.81 C322.43,693.3 308.6,695.63 295.2,696.69 C282.88,697.69 270.5,698.63 258.2,697.49 C245.43,696.31 230.13,693.85 219.64,685.3 C211.59,678.74 208.64,666.53 206.51,656.89 C202.87,640.64 202.03,622.98 206.08,607.4 L206.08,607.4 Z M393.68,571.89 C398.41,553.7 409.82,538.37 431.2,531.5 C437.13,529.59 442.71,529.29 448.79,528.98 C456.12,528.61 463.23,526.53 470.65,526.55 C482.55,526.55 495.97,526.07 507.12,530.91 C514.85,534.311 522.064,538.782 528.55,544.19 C538.13,552.13 545.76,563.43 547.27,576.19 C548.95,590.43 544.89,603.73 540.47,617.3 C536.67,628.98 532.28,640.61 521.03,649.3 C510.03,657.79 496.2,660.12 482.8,661.18 C470.48,662.18 458.1,663.12 445.8,661.98 C433.03,660.8 417.73,658.34 407.24,649.79 C399.19,643.23 396.24,631.02 394.11,621.38 C390.47,605.11 389.64,587.45 393.68,571.89 L393.68,571.89 Z M2.69,741.87 C7.42,723.68 18.83,708.35 40.21,701.48 C46.14,699.57 51.72,699.27 57.8,698.96 C65.13,698.59 72.24,696.51 79.66,696.53 C91.56,696.53 104.98,696.05 116.13,700.89 C123.86,704.291 131.074,708.762 137.56,714.17 C147.14,722.11 154.77,733.41 156.28,746.17 C157.96,760.41 153.9,773.71 149.48,787.28 C145.68,798.96 141.29,810.59 130.04,819.28 C119.04,827.77 105.21,830.1 91.81,831.16 C79.49,832.16 67.11,833.1 54.81,831.96 C42.04,830.78 26.74,828.32 16.25,819.77 C8.2,813.21 5.25,801 3.12,791.36 C-0.52,775.09 -1.36,757.4 2.69,741.87 L2.69,741.87 Z M206.08,777.4 C210.81,759.21 222.22,743.88 243.6,737.01 C249.53,735.1 255.11,734.8 261.19,734.49 C268.52,734.12 275.63,732.04 283.05,732.06 C294.95,732.06 308.37,731.58 319.52,736.42 C327.25,739.821 334.464,744.292 340.95,749.7 C350.53,757.64 358.16,768.94 359.67,781.7 C361.35,795.94 357.29,809.24 352.87,822.81 C349.07,834.49 344.68,846.12 333.43,854.81 C322.43,863.3 308.6,865.63 295.2,866.69 C282.88,867.69 270.5,868.63 258.2,867.49 C245.43,866.31 230.13,863.85 219.64,855.3 C211.59,848.74 208.64,836.53 206.51,826.89 C202.87,810.61 202.03,792.96 206.08,777.4 L206.08,777.4 Z M393.68,741.87 C398.41,723.68 409.82,708.35 431.2,701.48 C437.13,699.57 442.71,699.27 448.79,698.96 C456.12,698.59 463.23,696.51 470.65,696.53 C482.55,696.53 495.97,696.05 507.12,700.89 C514.85,704.291 522.064,708.762 528.55,714.17 C538.13,722.11 545.76,733.41 547.27,746.17 C548.95,760.41 544.89,773.71 540.47,787.28 C536.67,798.96 532.28,810.59 521.03,819.28 C510.03,827.77 496.2,830.1 482.8,831.16 C470.48,832.16 458.1,833.1 445.8,831.96 C433.03,830.78 417.73,828.32 407.24,819.77 C399.19,813.21 396.24,801 394.11,791.36 C390.47,775.09 389.64,757.4 393.68,741.87 L393.68,741.87 Z"></path>
                        </g>
                    </g>
                </g>
            </g>
        </g>
    </g>
</svg>